…
```r
mtcars %>% dplyr::summarise(.data[c("cyl", "am")])
#> Error in `dplyr::summarise()`:
#> i In argument: `.data[c("cyl", "am")]`.
#> Caused by error in `.data[c("cyl", "am")]`:
#> ! `[` is not supported by the `.data` pronoun, use `[[` or $ instead.
#訳：`[`は`.data`代名詞に対応していません。`[[`か$を使ってください。
```

tidy評価には`.data`の複数形バージョンはありません。代わりに`all_of()`演算子を使うことで文字列ベクトルを与えたtidy選択が使用できます。`all_of()`演算子はtidy選択を受け取る関数内で簡単に使えます。次のコードは`tidyr::pivot_longer()`の例です。

```r
vars <- c("cyl", "am")
mtcars %>% tidyr::pivot_longer(all_of(vars))
#> # A tibble: 64 x 11
#>     mpg  disp    hp  drat    wt  qsec    vs  gear  carb name  value
#>   <dbl> <dbl> <dbl> <dbl> <dbl> <dbl> <dbl> <dbl> <dbl> <chr> <dbl>
#> 1    21   160   110   3.9  2.62  16.5     0     4     4 cyl       6
#> 2    21   160   110   3.9  2.62  16.5     0     4     4 am        1
#> 3    21   160   110   3.9  2.88  17.0     0     4     4 cyl       6
#> 4    21   160   110   3.9  2.88  17.0     0     4     4 am        1
#> # i 60 more rows
```
…
